[
  {
    "deleted": 0,
    "code": null,
    "name": "Собственность",
    "id": "ad208a22-932c-4ae9-9513-3f277a08796e"
  },
  {
    "deleted": 0,
    "code": null,
    "name": "Аренда",
    "id": "d83f03d8-40d5-4f73-9989-29acad7db6f4"
  },
  {
    "deleted": 0,
    "code": null,
    "name": "Субаренда",
    "id": "6dbed254-657a-4712-9bbe-1e0897c0f6cf"
  },
  {
    "deleted": 0,
    "code": null,
    "name": "Бессрочное пользование",
    "id": "401c1eb9-dacd-4b7d-8045-d3d2ec57c55b"
  }
]