[
  {
    "deleted": 0,
    "code": null,
    "name": "Московская область",
    "id": "b4f2f4ac-1c41-41ba-8a14-e54c0acdd024"
  },
  {
    "deleted": 0,
    "code": null,
    "name": "Москва",
    "id": "eef19f22-d83f-4fd8-b191-fada0c7f3053"
  },
  {
    "deleted": 0,
    "code": null,
    "name": "Санкт-Петербург",
    "id": "a8c6bf1f-5da2-4b0e-bfe9-c3a01dbce3fd"
  },
  {
    "deleted": 0,
    "code": null,
    "name": "Сахалинская область",
    "id": "b5a41609-ddc1-44da-8a35-d432f237ae52"
  },
  {
    "deleted": 0,
    "code": null,
    "name": "Республика Адыгея",
    "id": "582ec471-7132-4765-abd5-3bcf4292cb37"
  },
  {
    "deleted": 0,
    "code": null,
    "name": "Республика Алтай",
    "id": "9d5e62b4-05d8-42e5-a15d-30e5b14cc184"
  },
  {
    "deleted": 0,
    "code": null,
    "name": "Республика Башкортостан",
    "id": "f219ba3c-d657-4d23-bd06-6fc64f8cc77e"
  },
  {
    "deleted": 0,
    "code": null,
    "name": "Республика Бурятия",
    "id": "d9d8ace6-58e7-4aa3-bc4b-82665efcb432"
  },
  {
    "deleted": 0,
    "code": null,
    "name": "Республика Дагестан",
    "id": "e3982c05-501a-422e-a07b-1a205d9cefb5"
  },
  {
    "deleted": 0,
    "code": null,
    "name": "Республика Ингушетия",
    "id": "b5ea921e-acd7-4ace-b5c9-589af1cfc93f"
  },
  {
    "deleted": 0,
    "code": null,
    "name": "Кабардино-Балкарская Республика",
    "id": "aa6aa7b1-6e29-41c2-be32-16e9338fdfd5"
  },
  {
    "deleted": 0,
    "code": null,
    "name": "Республика Калмыкия",
    "id": "ce104213-68b5-4009-99c3-d4513a5764b1"
  },
  {
    "deleted": 0,
    "code": null,
    "name": "Карачаево-Черкесская Республика",
    "id": "8bd85577-0f97-466b-b57e-39eb13e5b8ea"
  },
  {
    "deleted": 0,
    "code": null,
    "name": "Республика Карелия",
    "id": "a98b8885-1ede-467c-99e5-8e1ec5d79f4a"
  },
  {
    "deleted": 0,
    "code": null,
    "name": "Республика Коми",
    "id": "f821a9c2-9022-436d-909e-a9737f3bde41"
  },
  {
    "deleted": 0,
    "code": null,
    "name": "Республика Крым",
    "id": "304ef9e2-ed84-472b-967d-1bf75575602b"
  },
  {
    "deleted": 0,
    "code": null,
    "name": "Республика Марий Эл",
    "id": "0d5c7acb-25e8-481b-b49e-85277a26dbb3"
  },
  {
    "deleted": 0,
    "code": null,
    "name": "Республика Мордовия",
    "id": "6b7f2f94-e58d-4f34-92ca-2f1a139ff32c"
  },
  {
    "deleted": 0,
    "code": null,
    "name": "Республика Саха (Якутия)",
    "id": "53a8f3d2-1734-48c2-a9b9-9467cedbf630"
  },
  {
    "deleted": 0,
    "code": null,
    "name": "Республика Северная Осетия — Алания",
    "id": "7dc25c0e-a8cc-4e3c-a84c-0e283a3bd5ac"
  },
  {
    "deleted": 0,
    "code": null,
    "name": "Республика Татарстан",
    "id": "0ce010a9-1214-4349-86ed-11f6a78b7e3b"
  },
  {
    "deleted": 0,
    "code": null,
    "name": "Республика Тыва",
    "id": "32ba4f3f-594c-4183-8af2-47d2ad7ec342"
  },
  {
    "deleted": 0,
    "code": null,
    "name": "Удмуртская Республика",
    "id": "139dfb7d-eaa3-403b-baf1-9e9a74993a76"
  },
  {
    "deleted": 0,
    "code": null,
    "name": "Республика Хакасия",
    "id": "fe358132-5172-45fc-b98f-22db0dbcc936"
  },
  {
    "deleted": 0,
    "code": null,
    "name": "Чеченская Республика",
    "id": "6422271d-f781-433d-a3eb-d179d335776b"
  },
  {
    "deleted": 0,
    "code": null,
    "name": "Свердловская область",
    "id": "287c2a52-96cf-439d-8dd0-3d5a0f2d02b3"
  },
  {
    "deleted": 0,
    "code": null,
    "name": "Чувашская Республика",
    "id": "98ad82d3-8433-43ca-b86d-8d669d9467fd"
  },
  {
    "deleted": 0,
    "code": null,
    "name": "Алтайский край",
    "id": "55661c37-0cb1-4dda-b5e2-619d2bac9590"
  },
  {
    "deleted": 0,
    "code": null,
    "name": "Забайкальский край",
    "id": "2ea38650-021d-4dd6-a30b-14ac3899cea6"
  },
  {
    "deleted": 0,
    "code": null,
    "name": "Камчатский край",
    "id": "96ce0438-d6ab-4468-a1de-4f0979838e39"
  },
  {
    "deleted": 0,
    "code": null,
    "name": "Краснодарский край",
    "id": "5c25a260-4a80-4a77-b985-be647a8b0dba"
  },
  {
    "deleted": 0,
    "code": null,
    "name": "Красноярский край",
    "id": "c3450d4f-364a-408e-9efb-869510bed734"
  },
  {
    "deleted": 0,
    "code": null,
    "name": "Пермский край",
    "id": "248d74f2-9846-4283-b22c-a051ea3676da"
  },
  {
    "deleted": 0,
    "code": null,
    "name": "Приморский край",
    "id": "8bd2ce3f-ad31-488e-8ee3-96502d5a04aa"
  },
  {
    "deleted": 0,
    "code": null,
    "name": "Ставропольский край",
    "id": "e6382d12-e453-4b73-9f54-7a1d622eb62a"
  },
  {
    "deleted": 0,
    "code": null,
    "name": "Хабаровский край",
    "id": "73d4226c-f582-46a0-ae30-17ec92dcde67"
  },
  {
    "deleted": 0,
    "code": null,
    "name": "Амурская область",
    "id": "efd7e3b6-891c-4d00-8dfc-ad722c53e468"
  },
  {
    "deleted": 0,
    "code": null,
    "name": "Архангельская область",
    "id": "2716f81e-85a6-471d-87ad-42c7e7fcb027"
  },
  {
    "deleted": 0,
    "code": null,
    "name": "Астраханская область",
    "id": "baef75c0-2a77-426d-a03d-aa3952a60e29"
  },
  {
    "deleted": 0,
    "code": null,
    "name": "Белгородская область",
    "id": "33d4c52a-e7f0-4d20-a81c-28d02ace484d"
  },
  {
    "deleted": 0,
    "code": null,
    "name": "Брянская область",
    "id": "bd0fa23b-f057-485d-a199-3742e037db3c"
  },
  {
    "deleted": 0,
    "code": null,
    "name": "Владимирская область",
    "id": "17d7a842-6e03-40b3-9192-3500ab9babc1"
  },
  {
    "deleted": 0,
    "code": null,
    "name": "Волгоградская область",
    "id": "eaef36dc-7fa7-4aa5-b572-94349ddd8606"
  },
  {
    "deleted": 0,
    "code": null,
    "name": "Вологодская область",
    "id": "74a17520-9ed8-4129-a9a6-0e86e8d06853"
  },
  {
    "deleted": 0,
    "code": null,
    "name": "Воронежская область",
    "id": "4dca15d9-9cb9-4800-9f9b-cf3b00c2d2b9"
  },
  {
    "deleted": 0,
    "code": null,
    "name": "Ивановская область",
    "id": "2cf94a30-4726-4dfc-8bc1-e304aa9ed95e"
  },
  {
    "deleted": 0,
    "code": null,
    "name": "Иркутская область",
    "id": "e4e0d4a6-a45c-4fc4-95cd-87f4d780ea26"
  },
  {
    "deleted": 0,
    "code": null,
    "name": "Калининградская область",
    "id": "4479e4ac-d840-4837-8364-7b6a5802e298"
  },
  {
    "deleted": 0,
    "code": null,
    "name": "Калужская область",
    "id": "bc05226e-01a3-45e6-ba4b-dbde0fae7c48"
  },
  {
    "deleted": 0,
    "code": null,
    "name": "Кемеровская область",
    "id": "4e87e023-edff-42f8-a066-1d4e91238848"
  },
  {
    "deleted": 0,
    "code": null,
    "name": "Кировская область",
    "id": "af88f397-2f45-4fb4-b8bb-41ba5b82de35"
  },
  {
    "deleted": 0,
    "code": null,
    "name": "Костромская область",
    "id": "1a336f00-e26d-4f03-bb5f-c1721bc5887d"
  },
  {
    "deleted": 0,
    "code": null,
    "name": "Курганская область",
    "id": "a5bc2486-b049-4f75-96b0-951ee85b3303"
  },
  {
    "deleted": 0,
    "code": null,
    "name": "Курская область",
    "id": "7afa1530-c83d-45ba-b667-f9b62e48d2be"
  },
  {
    "deleted": 0,
    "code": null,
    "name": "Ленинградская область",
    "id": "3c8661b0-6963-4e23-82b2-ef09ec9e097b"
  },
  {
    "deleted": 0,
    "code": null,
    "name": "Липецкая область",
    "id": "b53bc969-bf4f-4c8d-b59f-6c776fb67d46"
  },
  {
    "deleted": 0,
    "code": null,
    "name": "Магаданская область",
    "id": "5a6e27fa-305c-4d13-8ee5-e5b10b264d3b"
  },
  {
    "deleted": 0,
    "code": null,
    "name": "Мурманская область",
    "id": "8bf9234f-6336-469d-9b7b-7d06d32ca1e3"
  },
  {
    "deleted": 0,
    "code": null,
    "name": "Нижегородская область",
    "id": "70f5458c-dab2-40a5-ab0e-9a823499c99b"
  },
  {
    "deleted": 0,
    "code": null,
    "name": "Новгородская область",
    "id": "4beb9fb8-e867-4e1a-9c49-d81a19077a20"
  },
  {
    "deleted": 0,
    "code": null,
    "name": "Новосибирская область",
    "id": "e681f477-48c7-437c-8606-cba1415848b2"
  },
  {
    "deleted": 0,
    "code": null,
    "name": "Омская область",
    "id": "3b892da7-4716-4ac3-a6b8-096344e85bcc"
  },
  {
    "deleted": 0,
    "code": null,
    "name": "Оренбургская область",
    "id": "2d4ef594-2c1d-4891-958f-2cc05b4a521e"
  },
  {
    "deleted": 0,
    "code": null,
    "name": "Орловская область",
    "id": "c4d831b7-2176-4b55-923d-12b725f7ee4c"
  },
  {
    "deleted": 0,
    "code": null,
    "name": "Пензенская область",
    "id": "8ff1fb97-d3c9-4ea6-a475-9c260e4db7b3"
  },
  {
    "deleted": 0,
    "code": null,
    "name": "Псковская область",
    "id": "6854051e-086b-4d30-b283-4bd350d227b9"
  },
  {
    "deleted": 0,
    "code": null,
    "name": "Ростовская область",
    "id": "5f16f98e-1240-43fb-802f-e47a37b769e4"
  },
  {
    "deleted": 0,
    "code": null,
    "name": "Рязанская область",
    "id": "d7fe02c5-5fa2-4511-939b-3384134c0aed"
  },
  {
    "deleted": 0,
    "code": null,
    "name": "Самарская область",
    "id": "209432e8-f9b8-4ca0-8f60-868dcf0d19d2"
  },
  {
    "deleted": 0,
    "code": null,
    "name": "Саратовская область",
    "id": "306bca45-6806-4d44-81ae-8a999057e1ee"
  },
  {
    "deleted": 0,
    "code": null,
    "name": "Смоленская область",
    "id": "4c0ab926-18e3-475c-b5e6-6de3e47cd5b8"
  },
  {
    "deleted": 0,
    "code": null,
    "name": "Тамбовская область",
    "id": "e137c00b-1563-4ca1-bb17-a697ac9042f5"
  },
  {
    "deleted": 0,
    "code": null,
    "name": "Тверская область",
    "id": "ea00ca95-4176-438f-b534-9ec63b6496a3"
  },
  {
    "deleted": 0,
    "code": null,
    "name": "Томская область",
    "id": "721d2cfb-92d7-44f6-bbbc-fd03be646092"
  },
  {
    "deleted": 0,
    "code": null,
    "name": "Тульская область",
    "id": "15337c43-badc-4e57-b91d-7224fe19eb2d"
  },
  {
    "deleted": 0,
    "code": null,
    "name": "Тюменская область",
    "id": "5e82238d-484d-41d8-bf10-1a2b4c7b3378"
  },
  {
    "deleted": 0,
    "code": null,
    "name": "Ульяновская область",
    "id": "54f2ea86-4046-4ac1-9b20-bb3b83c80ae0"
  },
  {
    "deleted": 0,
    "code": null,
    "name": "Челябинская область",
    "id": "4e3f32ed-8721-4279-ab72-9c69a0057a11"
  },
  {
    "deleted": 0,
    "code": null,
    "name": "Ярославская область",
    "id": "ecc811ad-2c4e-4e24-a322-fb3af8cf8120"
  },
  {
    "deleted": 0,
    "code": null,
    "name": "Севастополь",
    "id": "5861dbf4-c7ad-4abe-81a2-80e1fefab39b"
  },
  {
    "deleted": 0,
    "code": null,
    "name": "Ямало-Ненецкий автономный округ",
    "id": "2e71a044-4c27-49e2-aa86-62db7bfbf189"
  },
  {
    "deleted": 0,
    "code": null,
    "name": "Еврейская автономная область",
    "id": "c31d50cd-cff8-4263-9d64-6ef16602c00f"
  },
  {
    "deleted": 0,
    "code": null,
    "name": "Ненецкий автономный округ",
    "id": "eb2e31f0-e2c3-44e4-bea0-eed19dadd294"
  },
  {
    "deleted": 0,
    "code": null,
    "name": "Ханты-Мансийский автономный округ - Югра",
    "id": "fb55754e-62a4-4f09-8726-b2c13e9e3a60"
  },
  {
    "deleted": 0,
    "code": null,
    "name": "Чукотский автономный округ",
    "id": "7ceccf3a-875e-4226-b726-e2bcb52b8566"
  }
]